         run       event       nTopo   nIdTracks  nTauTracks       nTaus      nMuons       nElec   nTrueElec   nFakeElec       nPhot   nTruePhot   nFakePhot
      330000     8504001          24          23           5           2           0           1           1           0           3           2           1
      330000     8504004          50          48          22           5           0           6           2           4           7           3           4
      330000     8504006          78          54          27           5           1           6           3           3          14           9           5
      330000     8504009          44          37          22           4           0           5           1           4           7           3           4
      330000     8504011          84          90          57           7           1          13           2          11          17          12           5
      330000     8504014          59          40          26           5           0           9           0           9          12           8           4
      330000     8504015          54          46          35           5           1           9           1           8          11           7           4
      330000     8504020          76          64          35           4           1          10           2           8          22          18           4
      330000     8504021          68          65          34           5           2           9           1           8          12           9           3
      330000     8504022          49          41          23           5           3           7           1           6           8           5           3
      330000     8504023          48          40          19           4           0           4           0           4          11           6           5
      330000     8504025          70          70          32           5           2          12           3           9          13           7           6
      330000     8504032          68          75          56           9           1          10           2           8          10           3           7
      330000     8504036          55          42          26           4           2           5           0           5          10           8           2
      330000     8504040          60          51          32           4           1           6           0           6          12           6           6
      330000     8504041          49          33          24           4           0           7           3           4           9           5           4
      330000     8504048          71          70          53           7           0          19           1          18          21          12           9
      330000     8504049          31          20          11           3           1           3           1           2           5           3           2
      330000     8504052          53          60          33           5           1           8           1           7          12           6           6
      330000     8504059          78          81          69          10           1          14           4          10          18          10           8
      330000     8504060          58          55          38           6           0          11           2           9          19          10           9
      330000     8504063          34          48          15           3           0           4           1           3           4           1           3
      330000     8504065          37          37          30           7           1           9           2           7          10           3           7
      330000     8504066          65          49          31           6           0           9           1           8          17           9           8
      330000     8504067          60          62          38           7           2          15           3          12          20           9          11
